…
``` r
# Note that the :: method is redundant here
# because we have already loaded the {tidyverse}
# and {readr} is included in this.
# However, I am using this method to make you
# aware of the specific package the read_csv
# function comes from.

college_recent_grads <- readr::read_csv("data/recent-grads.csv")

college_recent_grads
```

    ## # A tibble: 173 x 21
    ##     rank major_code major           major_category total sample_size   men women
    ##    <dbl>      <dbl> <chr>           <chr>          <dbl>       <dbl> <dbl> <dbl>
    ##  1     1       2419 Petroleum Engi… Engineering     2339          36  2057   282
    ##  2     2       2416 Mining And Min… Engineering      756           7   679    77
    ##  3     3       2415 Metallurgical … Engineering      856           3   725   131
    ##  4     4       2417 Naval Architec… Engineering     1258          16  1123   135
    ##  5     5       2405 Chemical Engin… Engineering    32260         289 21239 11021
    ##  6     6       2418 Nuclear Engine… Engineering     2573          17  2200   373
    ##  7     7       6202 Actuarial Scie… Business        3777          51  2110  1667
    ##  8     8       5001 Astronomy And … Physical Scie…  1792          10   832   960
    ##  9     9       2414 Mechanical Eng… Engineering    91227        1029 80320 10907
    ## 10    10       2408 Electrical Eng… Engineering    81527         631 65511 16016
    ## # … with 163 more rows, and 13 more variables: sharewomen <dbl>,
    ## #   employed <dbl>, employed_fulltime <dbl>, employed_parttime <dbl>,
    ## #   employed_fulltime_yearround <dbl>, unemployed <dbl>,
    ## #   unemployment_rate <dbl>, p25th <dbl>, median <dbl>, p75th <dbl>,
    ## #   college_jobs <dbl>, non_college_jobs <dbl>, low_wage_jobs <dbl>
…
#### Using `{dplyr}`

In the R code chunk below, name it `rearrange_college`.

Take the `college_recent_grads` dataset, *then* `arrange` the dataset by
`unemployment_rate`.

``` r
arrange(college_recent_grads, unemployment_rate)
```

    ## # A tibble: 173 x 21
    ##     rank major_code major        major_category    total sample_size   men women
    ##    <dbl>      <dbl> <chr>        <chr>             <dbl>       <dbl> <dbl> <dbl>
    ##  1    53       4005 Mathematics… Computers & Math…   609           7   500   109
    ##  2    74       3801 Military Te… Industrial Arts …   124           4   124     0
    ##  3    84       3602 Botany       Biology & Life S…  1329           9   626   703
    ##  4   113       1106 Soil Science Agriculture & Na…   685           4   476   209
    ##  5   121       2301 Educational… Education           804           5   280   524
    ##  6    15       2409 Engineering… Engineering        4321          30  3526   795
    ##  7    20       3201 Court Repor… Law & Public Pol…  1148          14   877   271
    ##  8   120       2305 Mathematics… Education         14237         123  3872 10365
    ##  9     1       2419 Petroleum E… Engineering        2339          36  2057   282
    ## 10    65       1100 General Agr… Agriculture & Na… 10399         158  6053  4346
    ## # … with 163 more rows, and 13 more variables: sharewomen <dbl>,
    ## #   employed <dbl>, employed_fulltime <dbl>, employed_parttime <dbl>,
    ## #   employed_fulltime_yearround <dbl>, unemployed <dbl>,
    ## #   unemployment_rate <dbl>, p25th <dbl>, median <dbl>, p75th <dbl>,
    ## #   college_jobs <dbl>, non_college_jobs <dbl>, low_wage_jobs <dbl>
…
#### Removing unnecessary information

Use the pipeline that you made in the `rearrange_college` code chunk as
the start to this solution, **then** `select` only the variables `rank`,
`major`, and `unemployment_rate`. Name this code chunk
`lowest_unemploy`.

``` r
college_recent_grads %>% 
  select(rank, major, unemployment_rate) %>% 
  arrange(unemployment_rate)
```

    ## # A tibble: 173 x 3
    ##     rank major                                      unemployment_rate
    ##    <dbl> <chr>                                                  <dbl>
    ##  1    53 Mathematics And Computer Science                     0      
    ##  2    74 Military Technologies                                0      
    ##  3    84 Botany                                               0      
    ##  4   113 Soil Science                                         0      
    ##  5   121 Educational Administration And Supervision           0      
    ##  6    15 Engineering Mechanics Physics And Science            0.00633
    ##  7    20 Court Reporting                                      0.0117 
    ##  8   120 Mathematics Teacher Education                        0.0162 
    ##  9     1 Petroleum Engineering                                0.0184 
    ## 10    65 General Agriculture                                  0.0196 
    ## # … with 163 more rows
…
### Which major has the highest proportion of women?

Using the `college_recent_grads` dataset and functions from `{dplyr}`,
`arrange` the dataset by `sharewomen`, and `select` only `rank`,
`major`, and `sharewomen`. Name your code chunk `highest_prop_women`.

``` r
college_recent_grads %>% 
  select(rank, major, sharewomen) %>% 
  arrange(sharewomen)
```

    ## # A tibble: 173 x 3
    ##     rank major                                       sharewomen
    ##    <dbl> <chr>                                            <dbl>
    ##  1    74 Military Technologies                           0     
    ##  2    67 Mechanical Engineering Related Technologies     0.0775
    ##  3    27 Construction Services                           0.0907
    ##  4     2 Mining And Mineral Engineering                  0.102 
    ##  5     4 Naval Architecture And Marine Engineering       0.107 
    ##  6     9 Mechanical Engineering                          0.120 
    ##  7     1 Petroleum Engineering                           0.121 
    ##  8   107 Transportation Sciences And Technologies        0.125 
    ##  9   112 Forestry                                        0.125 
    ## 10    12 Aerospace Engineering                           0.140 
    ## # … with 163 more rows
…
